tb2.vcd
$date
	Sun Nov 16 12:59:40 2025
$end
$version
	Icarus Verilog
$end
$timescale
	1ps
$end
$scope module game_tb2 $end
$var wire 1 ! bullet_active $end
$var wire 5 " bullet_x [4:0] $end
$var wire 4 # bullet_y [3:0] $end
$var wire 1 $ enemy0_active $end
$var wire 5 % enemy0_x [4:0] $end
$var wire 4 & enemy0_y [3:0] $end
$var wire 1 ' enemy1_active $end
$var wire 5 ( enemy1_x [4:0] $end
$var wire 4 ) enemy1_y [3:0] $end
$var wire 1 * enemy2_active $end
$var wire 5 + enemy2_x [4:0] $end
$var wire 4 , enemy2_y [3:0] $end
$var wire 1 - hit $end
$var wire 8 . hit_count [7:0] $end
$var wire 5 / player_x [4:0] $end
$var wire 4 0 player_y [3:0] $end
$var wire 8 1 score [7:0] $end
$var reg 1 2 clk $end
$var reg 5 3 enemy_init_x [4:0] $end
$var reg 4 4 enemy_init_y [3:0] $end
$var reg 1 5 enemy_spawn $end
$var reg 1 6 left $end
$var reg 1 7 right $end
$var reg 1 8 rst_n $end
$var reg 1 9 shoot $end
$scope module dut $end
$var wire 1 : clk $end
$var wire 5 ; enemy_init_x [4:0] $end
$var wire 4 < enemy_init_y [3:0] $end
$var wire 1 = enemy_spawn $end
$var wire 1 > left $end
$var wire 1 ? right $end
$var wire 1 @ rst_n $end
$var wire 1 A shoot $end
$var reg 1 B bullet_active $end
$var reg 4 C bullet_timer_cnt [3:0] $end
$var reg 5 D bullet_x [4:0] $end
$var reg 4 E bullet_y [3:0] $end
$var reg 1 F enemy0_active $end
$var reg 4 G enemy0_timer_cnt [3:0] $end
$var reg 5 H enemy0_x [4:0] $end
$var reg 4 I enemy0_y [3:0] $end
$var reg 1 J enemy1_active $end
$var reg 4 K enemy1_timer_cnt [3:0] $end
$var reg 5 L enemy1_x [4:0] $end
$var reg 4 M enemy1_y [3:0] $end
$var reg 1 N enemy2_active $end
$var reg 4 O enemy2_timer_cnt [3:0] $end
$var reg 5 P enemy2_x [4:0] $end
$var reg 4 Q enemy2_y [3:0] $end
$var reg 1 R hit $end
$var reg 8 S hit_count [7:0] $end
$var reg 8 T lfsr [7:0] $end
$var reg 5 U player_x [4:0] $end
$var reg 4 V player_y [3:0] $end
$var reg 8 W score [7:0] $end
$var reg 8 X spawn_timer_cnt [7:0] $end
$upscope $end
$upscope $end
$enddefinitions $end
#0
$dumpvars
b0 X
b0 W
b1110 V
b1010 U
b10100101 T
b0 S
0R
b0 Q
b0 P
b0 O
0N
b0 M
b0 L
b0 K
0J
b0 I
b0 H
b0 G
0F
b0 E
b0 D
b0 C
0B
0A
0@
0?
0>
0=
b0 <
b0 ;
0:
09
08
07
06
05
b0 4
b0 3
02
b0 1
b1110 0
b1010 /
b0 .
0-
b0 ,
b0 +
0*
b0 )
b0 (
0'
b0 &
b0 %
0$
b0 #
b0 "
0!
$end
#1000
12
1:
#2000
02
0:
#3000
12
1:
#4000
02
0:
#5000
b1001010 T
12
1:
18
1@
#6000
02
0:
#7000
b1001 U
b1001 /
b10010101 T
12
1:
16
1>
#8000
02
0:
#9000
b101010 T
12
1:
06
0>
#10000
02
0:
#11000
b1000 U
b1000 /
b1010100 T
12
1:
16
1>
#12000
02
0:
#13000
b10101001 T
12
1:
06
0>
#14000
02
0:
#15000
b111 U
b111 /
b1010011 T
12
1:
16
1>
#16000
02
0:
#17000
b10100111 T
12
1:
06
0>
#18000
02
0:
#19000
b110 U
b110 /
b1001110 T
12
1:
16
1>
#20000
02
0:
#21000
b10011101 T
12
1:
06
0>
#22000
02
0:
#23000
b101 U
b101 /
b111011 T
12
1:
16
1>
#24000
02
0:
#25000
b1110111 T
12
1:
06
0>
#26000
02
0:
#27000
b100 U
b100 /
b11101110 T
12
1:
16
1>
#28000
02
0:
#29000
b11011101 T
12
1:
06
0>
#30000
02
0:
#31000
b11 U
b11 /
b10111011 T
12
1:
16
1>
#32000
02
0:
#33000
b1110110 T
12
1:
06
0>
#34000
02
0:
#35000
b10 U
b10 /
b11101100 T
12
1:
16
1>
#36000
02
0:
#37000
b11011001 T
12
1:
06
0>
#38000
02
0:
#39000
b1 U
b1 /
b10110011 T
12
1:
16
1>
#40000
02
0:
#41000
b1100111 T
12
1:
06
0>
#42000
02
0:
#43000
b0 U
b0 /
b11001111 T
12
1:
16
1>
#44000
02
0:
#45000
b10011110 T
12
1:
06
0>
#46000
02
0:
#47000
b100 I
b100 &
1F
1$
b111101 T
12
1:
15
1=
b100 4
b100 <
#48000
02
0:
#49000
b1 G
b1111011 T
12
1:
05
0=
#50000
02
0:
#51000
b10 G
b11110111 T
12
1:
#52000
02
0:
#53000
b101 I
b101 &
b0 G
b1101 E
b1101 #
1B
1!
b11101111 T
12
1:
19
1A
#54000
02
0:
#55000
b1 G
b1 C
b11011111 T
12
1:
09
0A
#56000
02
0:
#57000
b10 G
b1100 E
b1100 #
b0 C
b10111111 T
12
1:
#58000
02
0:
#59000
b110 I
b110 &
b0 G
b1 C
b1111110 T
12
1:
#60000
02
0:
#61000
b1 G
b1011 E
b1011 #
b0 C
b11111101 T
12
1:
#62000
02
0:
#63000
b10 G
b1 C
b11111010 T
12
1:
#64000
02
0:
#65000
b111 I
b111 &
b0 G
b1010 E
b1010 #
b0 C
b11110100 T
12
1:
#66000
02
0:
#67000
b1 G
b1 C
b11101001 T
12
1:
#68000
02
0:
#69000
b10 G
b1001 E
b1001 #
b0 C
b11010011 T
12
1:
#70000
02
0:
#71000
b1000 I
b1000 &
b0 G
b1 C
b10100110 T
12
1:
#72000
02
0:
#73000
b1 G
b1000 E
b1000 #
b0 C
b1001100 T
12
1:
#74000
02
0:
#75000
b1 S
b1 .
b1 W
b1 1
0F
0$
0B
0!
1R
1-
b10 G
b1 C
b10011001 T
12
1:
#76000
02
0:
#77000
b110011 T
0R
0-
12
1:
#78000
02
0:
#79000
b1100110 T
12
1:
#80000
02
0:
#81000
b11001101 T
12
1:
#82000
02
0:
#83000
b10011010 T
12
1:
#84000
02
0:
#85000
b110101 T
12
1:
#86000
02
0:
#87000
b1101010 T
12
1:
#88000
02
0:
#89000
b11010100 T
12
1:
#90000
02
0:
#91000
b10101000 T
12
1:
#92000
02
0:
#93000
b1010001 T
12
1:
#94000
02
0:
#95000
b10100011 T
12
1:
#96000
02
0:
#97000
b1000110 T
12
1:
#98000
02
0:
#99000
b10001100 T
12
1:
#100000
02
0:
#101000
b11000 T
12
1:
#102000
02
0:
#103000
b110000 T
12
1:
#104000
02
0:
#105000
b1100000 T
12
1:
#106000
02
0:
#107000
b11000001 T
12
1:
#108000
02
0:
#109000
b10000011 T
12
1:
#110000
02
0:
#111000
b111 T
12
1:
#112000
02
0:
#113000
b1110 T
12
1:
#114000
02
0:
#115000
b11101 T
12
1:
#116000
02
0:
#117000
b111010 T
12
1:
#118000
02
0:
#119000
b1110101 T
12
1:
#120000
02
0:
#121000
b11101010 T
12
1:
#122000
02
0:
#123000
b11010101 T
12
1:
#124000
02
0:
#125000
b10101010 T
12
1:
#126000
02
0:
#127000
b1010101 T
12
1:
#128000
02
0:
#129000
b10101011 T
12
1:
#130000
02
0:
#131000
b1010111 T
12
1:
#132000
02
0:
#133000
b10101111 T
12
1:
#134000
02
0:
#135000
b1011111 T
12
1:
#136000
02
0:
#137000
b10111110 T
12
1:
#138000
02
0:
#139000
b1111100 T
12
1:
#140000
02
0:
#141000
b11111001 T
12
1:
#142000
02
0:
#143000
b11110010 T
12
1:
#144000
02
0:
#145000
b11100101 T
12
1:
#146000
02
0:
#147000
b11001010 T
12
1:
#148000
02
0:
#149000
b10010100 T
12
1:
#150000
02
0:
#151000
b101000 T
12
1:
#152000
02
0:
#153000
b1010000 T
12
1:
#154000
02
0:
#155000
b10100001 T
12
1:
#156000
02
0:
#157000
b1000010 T
12
1:
#158000
02
0:
#159000
b10000100 T
12
1:
#160000
02
0:
#161000
b1001 T
12
1:
#162000
02
0:
#163000
b10011 T
12
1:
#164000
02
0:
#165000
b100111 T
12
1:
#166000
02
0:
#167000
b1001111 T
12
1:
#168000
02
0:
#169000
b10011111 T
12
1:
#170000
02
0:
#171000
b111111 T
12
1:
#172000
02
0:
#173000
b1111111 T
12
1:
#174000
02
0:
#175000
b11111111 T
12
1:
#176000
02
0:
#177000
b11111110 T
12
1:
#178000
02
0:
#179000
b11111100 T
12
1:
#180000
02
0:
#181000
b11111000 T
12
1:
#182000
02
0:
#183000
b11110000 T
12
1:
#184000
02
0:
#185000
b11100001 T
12
1:
#186000
02
0:
#187000
b11000010 T
12
1:
#188000
02
0:
#189000
b10000101 T
12
1:
#190000
02
0:
#191000
b1011 T
12
1:
#192000
02
0:
#193000
b10111 T
12
1:
#194000
02
0:
#195000
b101111 T
12
1:
#196000
02
0:
#197000
b1011110 T
12
1:
#198000
02
0:
#199000
b10111100 T
12
1:
#200000
02
0:
#201000
b1111000 T
12
1:
#202000
02
0:
#203000
b11110001 T
12
1:
#204000
02
0:
#205000
b11100011 T
12
1:
#206000
02
0:
#207000
b11000110 T
12
1:
#208000
02
0:
#209000
b10001101 T
12
1:
#210000
02
0:
#211000
b11010 T
12
1:
#212000
02
0:
#213000
b110100 T
12
1:
#214000
02
0:
#215000
b1101000 T
12
1:
#216000
02
0:
#217000
b11010000 T
12
1:
#218000
02
0:
#219000
b10100000 T
12
1:
#220000
02
0:
#221000
b1000000 T
12
1:
#222000
02
0:
#223000
b10000000 T
12
1:
#224000
02
0:
#225000
b1 T
12
1:
#226000
02
0:
#227000
b10 T
12
1:
#228000
02
0:
#229000
b100 T
12
1:
#230000
02
0:
#231000
b1000 T
12
1:
#232000
02
0:
#233000
b10001 T
12
1:
#234000
02
0:
#235000
b100011 T
12
1:
#236000
02
0:
#237000
b1000111 T
12
1:
#238000
02
0:
#239000
b10001110 T
12
1:
#240000
02
0:
#241000
b11100 T
12
1:
#242000
02
0:
#243000
b111000 T
12
1:
#244000
02
0:
#245000
b1110001 T
12
1:
#246000
02
0:
#247000
b11100010 T
12
1:
#248000
02
0:
#249000
b11000100 T
12
1:
#250000
02
0:
#251000
b10001001 T
12
1:
#252000
02
0:
#253000
b10010 T
12
1:
#254000
02
0:
#255000
b100101 T
12
1:
